<?xml version="1.0" encoding="iso-8859-1"?>
<!DOCTYPE svg PUBLIC "-//W3C//DTD SVG 1.1//EN" "http://www.w3.org/Graphics/SVG/1.1/DTD/svg11.dtd">
<svg  version="1.1" xmlns="http://www.w3.org/2000/svg" xmlns:xlink="http://www.w3.org/1999/xlink" x="0px" y="0px" width="512px"
	 height="512px" viewBox="0 0 512 512" style="enable-background:new 0 0 512 512;" xml:space="preserve"><g id="afcae5a789ccd549f9c6e2a2f81748cd"><path style="display: inline;" d="M468.917,106.958H43.083c-23.421,0-42.583,19.162-42.583,42.583v212.917
		c0,23.421,19.163,42.584,42.583,42.584h425.833c23.421,0,42.583-19.163,42.583-42.584V149.541
		C511.5,126.12,492.338,106.958,468.917,106.958z M490.208,362.458c0,11.74-9.552,21.292-21.291,21.292H43.083
		c-11.74,0-21.292-9.552-21.292-21.292V149.541c0-11.739,9.552-21.291,21.292-21.291h425.833c11.739,0,21.291,9.552,21.291,21.291
		V362.458z M316.361,304.438H297.41v-97.729h18.951c12.774,0,19.162,7.099,19.162,21.292v55.146
		C335.523,297.34,329.136,304.438,316.361,304.438z M43.083,362.458h425.833V149.541H43.083V362.458z M264.196,187.759
		c0-2.695,1.348-5.036,4.046-7.024c2.695-1.987,6.172-2.981,10.43-2.981h37.689c15.894,0,28.598,4.047,38.112,12.135
		c9.507,8.093,14.264,20.797,14.264,38.113v55.146c0,17.32-4.757,30.021-14.264,38.113c-9.515,8.088-22.219,12.135-38.112,12.135
		h-37.689c-4.258,0-7.734-0.99-10.43-2.981c-2.698-1.984-4.046-4.329-4.046-7.024V187.759z M207.669,280.165
		c-4.616-3.547-10.222-6.778-16.821-9.689c-6.6-2.906-13.236-6.171-19.907-9.793c-6.674-3.618-12.317-8.762-16.925-15.437
		c-4.616-6.67-6.919-14.617-6.919-23.845c0-15.05,5.323-26.295,15.969-33.747c10.646-7.452,23.487-11.178,38.533-11.178
		c3.693,0,7.56,0.216,11.606,0.656c4.046,0.441,8.587,1.281,13.627,2.524c5.036,1.244,9.157,3.257,12.351,6.034
		c3.193,2.778,4.791,6.143,4.791,10.089c0,3.751-1.173,7.644-3.518,11.686c-2.337,4.038-5.573,6.055-9.686,6.055
		c-1.701,0-5.323-1.348-10.858-4.042c-5.539-2.694-11.644-4.046-18.314-4.046c-7.094,0-12.417,1.243-15.969,3.726
		c-3.547,2.482-5.323,5.502-5.323,9.049c0,3.265,1.671,6.246,5.007,8.941c3.335,2.698,7.485,5.002,12.455,6.92
		c4.97,1.917,10.396,4.403,16.289,7.451c5.888,3.057,11.319,6.388,16.285,10.01c4.97,3.618,9.124,8.695,12.459,15.221
		c3.335,6.533,5.003,13.985,5.003,22.356c0,14.638-4.895,26.032-14.692,34.187c-9.793,8.155-22.639,12.23-38.537,12.23
		c-13.769,0-25.762-2.836-35.983-8.517c-10.222-5.677-15.329-12.063-15.329-19.162c0-3.972,1.456-7.947,4.367-11.923
		c2.902-3.972,6.279-5.963,10.113-5.963c2.129,0,4.5,0.86,7.128,2.582c2.628,1.722,5.04,3.631,7.244,5.722
		c2.196,2.097,5.281,4.001,9.257,5.723s8.163,2.582,12.567,2.582c5.531,0,10.355-1.173,14.476-3.514
		c4.113-2.341,6.175-5.855,6.175-10.538C214.589,287.829,212.277,283.717,207.669,280.165z"></path></g></svg>