<?xml version="1.0" encoding="utf-8"?>
<!-- Generator: Adobe Illustrator 19.0.0, SVG Export Plug-In . SVG Version: 6.00 Build 0)  -->
<svg version="1.1" id="Layer_1" xmlns="http://www.w3.org/2000/svg" xmlns:xlink="http://www.w3.org/1999/xlink" x="0px" y="0px"
	 viewBox="0 0 9 2.5" style="enable-background:new 0 0 9 2.5;" xml:space="preserve">
<style type="text/css">
	.st0{fill:#68A5D6;}
</style>
<circle class="st0" cx="1.3" cy="1.3" r="1.3"/>
<circle class="st0" cx="4.5" cy="1.3" r="1.3"/>
<circle class="st0" cx="7.7" cy="1.3" r="1.3"/>
</svg>
