<?xml version="1.0" encoding="UTF-8"?>
<!-- Generator: Adobe Illustrator 19.2.1, SVG Export Plug-In . SVG Version: 6.00 Build 0)  -->
<svg version="1.1" id="Layer_1" xmlns="http://www.w3.org/2000/svg" xmlns:xlink="http://www.w3.org/1999/xlink" x="0px" y="0px" viewBox="0 0 42.4 36.8" style="enable-background:new 0 0 42.4 36.8;" xml:space="preserve" adlesseUnifierData="[&quot;{\&quot;w\&quot;:false,\&quot;galleryBuild\&quot;:true,\&quot;id\&quot;:\&quot;{6C8B07BF-0F6D-4EA4-B96F-FF1CCBAAE553}\&quot;,\&quot;name\&quot;:\&quot;FastestTube\&quot;,\&quot;isComponentMode\&quot;:true}&quot;]">
<style type="text/css">
	.st0{fill:none;}
	.st1{fill:#E91D27;}
</style>
<polygon class="st0" points="19.5,28.8 18.1,28.8 18.1,32.2 21.5,32.2 21.5,31.9 19.5,31.9 "/>
<rect x="19.5" y="28.8" class="st0" width="2" height="3.2"/>
<path class="st1" d="M31.9,18.4L21.3,0L10.6,18.4L0,36.8h21.3h21.3L31.9,18.4z M23,31.9h-3.5v-3.5H23V31.9z M23.1,18.1l-0.9,9.2h-2  l-0.9-9.2v-4.2h3.7V18.1z"/>
</svg>