<?xml version="1.0" encoding="UTF-8"?>
<!-- Generator: Adobe Illustrator 19.2.1, SVG Export Plug-In . SVG Version: 6.00 Build 0)  -->
<svg version="1.1" id="Layer_1" xmlns="http://www.w3.org/2000/svg" xmlns:xlink="http://www.w3.org/1999/xlink" x="0px" y="0px" viewBox="0 0 36.8 36.8" style="enable-background:new 0 0 36.8 36.8;" xml:space="preserve" adlesseUnifierData="[&quot;{\&quot;w\&quot;:false,\&quot;galleryBuild\&quot;:true,\&quot;id\&quot;:\&quot;{6C8B07BF-0F6D-4EA4-B96F-FF1CCBAAE553}\&quot;,\&quot;name\&quot;:\&quot;FastestTube\&quot;,\&quot;isComponentMode\&quot;:true}&quot;]">
<style type="text/css">
	.st0{fill:none;}
	.st1{fill:#575757;}
</style>
<polygon class="st0" points="19.5,28.8 18.1,28.8 18.1,32.2 21.5,32.2 21.5,31.9 19.5,31.9 "/>
<rect x="19.5" y="28.8" class="st0" width="2" height="3.2"/>
<path class="st1" d="M18.4,0C8.2,0,0,8.2,0,18.4s8.2,18.4,18.4,18.4s18.4-8.2,18.4-18.4S28.6,0,18.4,0z M20.3,28.9h-4.1V14.2h4.1  V28.9z M20.3,12.2h-4.1V8.7h4.1V12.2z"/>
</svg>