<svg xmlns="http://www.w3.org/2000/svg" width="73.438" height="65" viewBox="0 0 73.438 65">
  <defs>
    <style>
      .cls-1 {
        fill: #fc5253;
        fill-rule: evenodd;
      }
    </style>
  </defs>
  <path id="icon_alert" class="cls-1" d="M67.4,65H6.6a6.243,6.243,0,0,1-5.458-3.139,6.193,6.193,0,0,1,0-6.278l30.4-52.449a6.315,6.315,0,0,1,10.917,0l30.4,52.449A6.278,6.278,0,0,1,67.4,65ZM37,1.987a4.258,4.258,0,0,0-3.723,2.142L2.873,56.578A4.283,4.283,0,0,0,6.6,63H67.4a4.283,4.283,0,0,0,3.724-6.425L40.721,4.128A4.26,4.26,0,0,0,37,1.987ZM32.614,51.836a4.407,4.407,0,0,1,4.356-4.393,4.367,4.367,0,1,1,0,8.733A4.4,4.4,0,0,1,32.614,51.836Zm1.307-8.028L33,20h8L40.02,43.808h-6.1Z" transform="translate(-0.281)"/>
</svg>
