<svg xmlns="http://www.w3.org/2000/svg" width="44" height="57" viewBox="0 0 44 57" adlesseUnifierData="[&quot;{\&quot;w\&quot;:false,\&quot;galleryBuild\&quot;:true,\&quot;id\&quot;:\&quot;{6C8B07BF-0F6D-4EA4-B96F-FF1CCBAAE553}\&quot;,\&quot;name\&quot;:\&quot;FastestTube\&quot;,\&quot;isComponentMode\&quot;:true}&quot;]">
  <defs>
    <style>
      .cls-1 {
        fill: #7a7a7a;
        fill-rule: evenodd;
      }
    </style>
  </defs>
  <path id="icon_calendar" class="cls-1" d="M764.583,2254.33l0.131,10.56h-8.381v-10.56H741.666v10.56h-8.381v-10.56H727V2305h44v-50.67h-6.417Zm-29.2-6.33v8.44h4.192V2248H735.38Zm0,10.56v4.22h4.192v-4.22H735.38Zm23.049,0v4.22h4.189v-4.22h-4.189Zm0-10.56v8.44h4.189V2248h-4.189Zm-25.144,27.31v6.34h6.287v-6.34h-6.287Zm8.381,0v6.34h6.286v-6.34h-6.286Zm8.381,0v6.34h6.286v-6.34h-6.286Zm8.382,0v6.34h6.285v-6.34h-6.285Zm0,8.45v6.33h6.285v-6.33h-6.285Zm0,8.44v6.33h6.285v-6.33h-6.285Zm-8.382-8.44v6.33h6.286v-6.33h-6.286Zm0,8.44v6.33h6.286v-6.33h-6.286Zm-8.381-8.44v6.33h6.286v-6.33h-6.286Zm0,8.44v6.33h6.286v-6.33h-6.286Zm-8.381-8.44v6.33h6.287v-6.33h-6.287Zm0,8.44v6.33h6.287v-6.33h-6.287Z" transform="translate(-727 -2248)"/>
</svg>