<?xml version="1.0" encoding="utf-8"?>
<!-- Generator: Adobe Illustrator 19.0.0, SVG Export Plug-In . SVG Version: 6.00 Build 0)  -->
<svg version="1.1" id="Layer_1" xmlns="http://www.w3.org/2000/svg" xmlns:xlink="http://www.w3.org/1999/xlink" x="0px" y="0px"
	 viewBox="0 0 15 19" style="enable-background:new 0 0 15 19;" xml:space="preserve">
<style type="text/css">
	.st0{fill:#9AB0B8;}
</style>
<g id="XMLID_85_">
	<g id="XMLID_86_">
		<path id="XMLID_221_" class="st0" d="M12.5,6.5V4.8c0-2.6-2-4.8-4.3-4.8L6.8,0C4.4,0,2.5,2.2,2.5,4.8v1.7l1.9,0V4.6
			c0-1.5,1.1-2.8,2.4-2.8h1.4c1.3,0,2.4,1.3,2.4,2.8v1.9L12.5,6.5z"/>
	</g>
	<g id="XMLID_87_">
		<path id="XMLID_90_" class="st0" d="M12.7,7.2H2.3C1,7.2,0,8.3,0,9.7v6.8C0,17.9,1,19,2.3,19h10.4c1.3,0,2.3-1.1,2.3-2.5V9.7
			C15,8.3,14,7.2,12.7,7.2z M8.3,13.6v2H6.7v-2c-0.4-0.3-0.6-0.7-0.6-1.2c0-0.8,0.7-1.5,1.5-1.5S9,11.6,9,12.4
			C9,12.9,8.7,13.4,8.3,13.6z"/>
	</g>
</g>
</svg>
