<?xml version="1.0" encoding="utf-8"?>
<!-- Generator: Adobe Illustrator 19.0.0, SVG Export Plug-In . SVG Version: 6.00 Build 0)  -->
<svg version="1.1" id="Layer_1" xmlns="http://www.w3.org/2000/svg" xmlns:xlink="http://www.w3.org/1999/xlink" x="0px" y="0px"
	 viewBox="0 0 8.5 40.4" style="enable-background:new 0 0 8.5 40.4;" xml:space="preserve">
<style type="text/css">
	.st0{fill:#D7D6D6;}
	.st1{fill:none;}
</style>
<path id="XMLID_9_" class="st0" d="M2.4,17.6l2.7,2.7l-2.7,2.7c-0.1,0.1-0.1,0.2-0.1,0.3c0,0.1,0,0.2,0.1,0.3c0.2,0.2,0.5,0.2,0.7,0
	l3-3c0.2-0.2,0.2-0.5,0-0.7l-3-3c-0.2-0.2-0.5-0.2-0.7,0C2.2,17.1,2.2,17.4,2.4,17.6L2.4,17.6z M2.4,17.6"/>
<g id="XMLID_4_">
	<polygon id="XMLID_6_" class="st1" points="1.1,30.4 7.4,30.4 7.4,10.5 1.1,10.5 	"/>
	<path id="XMLID_15_" class="st0" d="M7.4,9.4H4.7V1V0.1V0H0.4v1h3.3v8.4H1.1C0.5,9.4,0,9.9,0,10.5v20c0,0.6,0.5,1.1,1.1,1.1h2.6
		v7.9H0.4v1h3.3h1v-1v-7.9h2.7c0.6,0,1.1-0.5,1.1-1.1v-20C8.5,9.9,8,9.4,7.4,9.4z M7.4,30.4H1.1l0-20l6.3,0L7.4,30.4z"/>
</g>
</svg>
