<?xml version="1.0" encoding="utf-8"?>
<!-- Generator: Adobe Illustrator 18.1.1, SVG Export Plug-In . SVG Version: 6.00 Build 0)  -->
<svg version="1.1" id="Layer_1" xmlns="http://www.w3.org/2000/svg" xmlns:xlink="http://www.w3.org/1999/xlink" x="0px" y="0px"
	 viewBox="-254 -63.1 800 800" enable-background="new -254 -63.1 800 800" xml:space="preserve">
<polygon fill="#FFFFFF" stroke="#FFFFFF" stroke-width="127" stroke-miterlimit="10" points="-245.6,576.8 134.3,576.8 278.1,271.5 
	335.4,10.3 -254,22.9 "/>
<path fill="none" stroke="#FFFFFF" stroke-width="127" stroke-miterlimit="10" d="M-86.6,515.7h-0.3c-22-0.7-40.6-7.6-53.8-20.1
	c-13-12.2-20.6-29.6-21.9-50.2l-0.1-2l40.4-224.4c3.6-20.8,14.9-40.4,31.9-55.1c16.8-14.6,37.4-23.4,58.3-24.6h0.6l236.6,0.1h0.4
	c28,1,43.6,13.8,51.6,24.3c10,12.9,15,30.2,15,51.4v1.5l-41.3,226.7l-1,2.1c-17.5,35.9-51.6,62.1-91.1,70.1l-1.9,0.4L-86.6,515.7
	L-86.6,515.7z M-31,156.6l235.6,0.1c34.7,1.3,49,25.1,49,58.2l-40.6,223c-15.2,31.2-44.7,53.5-78.3,60.3h-221
	c-35.5-1.1-55.9-21.1-58-53.9l40.1-222.5C-98.1,186.4-65,158.7-31,156.6 M-32.2,121.7l-1.2,0.1c-25.1,1.5-49.7,11.9-69.6,29.2
	c-20,17.4-33.3,40.5-37.6,65l-40.1,222.4l-0.7,4l0.3,4c1.6,24.9,11,46.2,27.3,61.5c16.6,15.7,39.5,24.3,66.2,25.2h0.6h0.6h221.1h3.9
	l3.8-0.7c45.2-9.1,84.1-39,104-79.8l2-4.2l0.8-4.5l40.6-223l0.5-3v-3c0-25-6.3-45.7-18.6-61.7c-7.6-9.8-17.2-17.5-28.6-22.8
	c-11-5.2-23.5-8.1-37.2-8.6h-0.7h-0.7l-235.6-0.1L-32.2,121.7L-32.2,121.7z M-143.7,335.5l21.9-119.4c3.8-20.8,15.7-40.1,33.7-54.6
	c17.9-14.5,39.9-22.5,61.9-22.5H87.3l4.7,3.2c16.9,11.3,26.7,26.9,29.4,46.5c2,15.3-0.7,30.3-2.9,42.3c-4,21.9-19.5,47.3-40.6,66.4
	c-19.2,17.3-51.9,38.1-99.5,38.1L-143.7,335.5L-143.7,335.5z M81.4,156.5c28.5,19,23,48.9,18.9,71.6c-5.7,31.4-47.4,90-122,90
	h-100.2l18.1-99c6.3-34.6,41-62.6,77.4-62.6H81.4 M93.1,121.6H81.4H-26.3c-54.3,0-104.3,40.2-113.7,91.6l-18.1,99l-7.5,40.9h43.7
	h100.2c22.6,0,44.2-4.2,64.4-12.5c17.6-7.2,33.7-17.5,47.9-30.4c12.1-11,22.7-24,30.8-37.6c7.7-13,13-26.3,15.2-38.5
	c2.3-12.5,5.4-29.6,3.1-47.5c-1.5-11.3-5-21.8-10.5-31.1c-6.3-10.8-15.3-20-26.5-27.5L93.1,121.6L93.1,121.6z M116.3,515.7
	L12.6,345.5l19.3-7.6c26.8-10.6,51.1-28.3,70.2-50.8c16.7-19.7,28.3-42.2,31.8-61.9c2.5-13.8,7.3-39.5-1.5-62.8l-8.7-23.3h78.2
	c22.9,0,43.3,8.6,57.1,24.3c14.1,15.9,19.6,36.8,15.6,58.9L235,438.7c-3.8,20.8-15.7,40.1-33.7,54.6c-17.9,14.5-39.9,22.5-61.9,22.5
	L116.3,515.7L116.3,515.7z M201.9,156.5c36.4,0,60.9,28,54.6,62.6l-39.6,216.6c-6.3,34.6-41,62.6-77.4,62.6H127L39,354
	c63.7-25.3,105-81.9,113-125.9c2.8-15.2,8-44.1-2.3-71.6H201.9 M201.9,121.6h-52.1H97.7l17.5,46.6c7.1,19,2.9,41.7,0.7,53.9l0,0l0,0
	c-3.1,16.8-13.3,36.6-28.1,54c-11.9,14.1-32.6,33.6-62.9,45.6L-13.7,337l20.9,34.3l87.9,144.4l10.6,17.4H127h12.5
	c54.3,0,104.3-40.2,113.7-91.6L292.7,225c2.5-13.4,2-26.6-1.4-39.2c-3.4-12.7-9.5-24-18.2-33.9c-8.6-9.7-19.2-17.3-31.5-22.5
	C229.3,124.2,216,121.6,201.9,121.6L201.9,121.6z M-88.8,515.7c-22.9,0-43.3-8.6-57.1-24.3c-14.1-15.9-19.6-36.8-15.6-58.9
	l15.2-82.9h115.6c3.4,0,7-0.1,11.4-0.4l11.4-0.7L94,515.7L-88.8,515.7L-88.8,515.7z M-17.9,366.8l80.1,131.5h-151
	c-36.4,0-60.8-28-54.6-62.6l12.5-68.5h100.2C-26.4,367.2-22.2,367-17.9,366.8 M94,480.8L13.9,349.3L2.4,330.4l0,0l-22.9,1.5
	c-4,0.3-7.3,0.4-10.2,0.4h-100.2h-31l-5.3,28.9l-12.5,68.5c-2.5,13.4-2,26.6,1.4,39.2c3.4,12.7,9.5,24,18.2,33.9
	c8.6,9.7,19.2,17.3,31.5,22.5c12.2,5.2,25.6,7.9,39.7,7.9h151"/>
<g>
	<g>
		<path fill="#FFFFFF" d="M-86.6,515.7h-0.3c-22-0.7-40.6-7.6-53.8-20.1c-13-12.2-20.6-29.6-21.9-50.2l-0.1-2l40.4-224.4
			c3.6-20.8,14.9-40.4,31.9-55.1c16.8-14.6,37.4-23.4,58.3-24.6h0.6l236.6,0.1h0.4c28,1,43.6,13.8,51.6,24.3
			c10,12.9,15,30.2,15,51.4v1.5l-41.3,226.7l-1,2.1c-17.5,35.9-51.6,62.1-91.1,70.1l-1.9,0.4L-86.6,515.7L-86.6,515.7z"/>
		<path fill="#FFFFFF" d="M-31,156.6l235.6,0.1c34.7,1.3,49,25.1,49,58.2l-40.6,223c-15.2,31.2-44.7,53.5-78.3,60.3h-221
			c-35.5-1.1-55.9-21.1-58-53.9l40.1-222.5C-98.1,186.4-65,158.7-31,156.6 M-32.2,121.7l-1.2,0.1c-25.1,1.5-49.7,11.9-69.6,29.2
			c-20,17.4-33.3,40.5-37.6,65l-40.1,222.4l-0.7,4l0.3,4c1.6,24.9,11,46.2,27.3,61.5c16.6,15.7,39.5,24.3,66.2,25.2h0.6h0.6h221.1
			h3.9l3.8-0.7c45.2-9.1,84.1-39,104-79.8l2-4.2l0.8-4.5l40.6-223l0.5-3v-3c0-25-6.3-45.7-18.6-61.7c-7.6-9.8-17.2-17.5-28.6-22.8
			c-11-5.2-23.5-8.1-37.2-8.6h-0.7h-0.7l-235.6-0.1L-32.2,121.7L-32.2,121.7z"/>
	</g>
	<path fill="#65BB47" d="M-143.7,335.5l21.9-119.4c3.8-20.8,15.7-40.1,33.7-54.6c17.9-14.5,39.9-22.5,61.9-22.5H87.3l4.7,3.2
		c16.9,11.3,26.7,26.9,29.4,46.5c2,15.3-0.7,30.3-2.9,42.3c-4,21.9-19.5,47.3-40.6,66.4c-19.2,17.3-51.9,38.1-99.5,38.1
		L-143.7,335.5L-143.7,335.5z"/>
	<path fill="#FFFFFF" d="M81.4,156.5c28.5,19,23,48.9,18.9,71.6c-5.7,31.4-47.4,90-122,90h-100.2l18.1-99
		c6.3-34.6,41-62.6,77.4-62.6H81.4 M93.1,121.6H81.4H-26.3c-54.3,0-104.3,40.2-113.7,91.6l-18.1,99l-7.5,40.9h43.7h100.2
		c22.6,0,44.2-4.2,64.4-12.5c17.6-7.2,33.7-17.5,47.9-30.4c12.1-11,22.7-24,30.8-37.6c7.7-13,13-26.3,15.2-38.5
		c2.3-12.5,5.4-29.6,3.1-47.5c-1.5-11.3-5-21.8-10.5-31.1c-6.3-10.8-15.3-20-26.5-27.5L93.1,121.6L93.1,121.6z"/>
	<g>
		<path fill="#2BA9E0" d="M116.3,515.7L12.6,345.5l19.3-7.6c26.8-10.6,51.1-28.3,70.2-50.8c16.7-19.7,28.3-42.2,31.8-61.9
			c2.5-13.8,7.3-39.5-1.5-62.8l-8.7-23.3h78.2c22.9,0,43.3,8.6,57.1,24.3c14.1,15.9,19.6,36.8,15.6,58.9L235,438.7
			c-3.8,20.8-15.7,40.1-33.7,54.6c-17.9,14.5-39.9,22.5-61.9,22.5L116.3,515.7L116.3,515.7z"/>
		<path fill="#FFFFFF" d="M201.9,156.5c36.4,0,60.9,28,54.6,62.6l-39.6,216.6c-6.3,34.6-41,62.6-77.4,62.6H127L39,354
			c63.7-25.3,105-81.9,113-125.9c2.8-15.2,8-44.1-2.3-71.6H201.9 M201.9,121.6h-52.1H97.7l17.5,46.6c7.1,19,2.9,41.7,0.7,53.9l0,0
			l0,0c-3.1,16.8-13.3,36.6-28.1,54c-11.9,14.1-32.6,33.6-62.9,45.6L-13.7,337l20.9,34.3l87.9,144.4l10.6,17.4H127h12.5
			c54.3,0,104.3-40.2,113.7-91.6L292.7,225c2.5-13.4,2-26.6-1.4-39.2c-3.4-12.7-9.5-24-18.2-33.9c-8.6-9.7-19.2-17.3-31.5-22.5
			C229.3,124.2,216,121.6,201.9,121.6L201.9,121.6z"/>
	</g>
	<g>
		<path fill="#65BB47" d="M-88.8,515.7c-22.9,0-43.3-8.6-57.1-24.3c-14.1-15.9-19.6-36.8-15.6-58.9l15.2-82.9h115.6
			c3.4,0,7-0.1,11.4-0.4l11.4-0.7L94,515.7L-88.8,515.7L-88.8,515.7z"/>
		<path fill="#FFFFFF" d="M-17.9,366.8l80.1,131.5h-151c-36.4,0-60.8-28-54.6-62.6l12.5-68.5h100.2C-26.4,367.2-22.2,367-17.9,366.8
			 M2.4,330.4l-22.9,1.5c-4,0.3-7.3,0.4-10.2,0.4h-100.2h-31l-5.3,28.9l-12.5,68.5c-2.5,13.4-2,26.6,1.4,39.2
			c3.4,12.7,9.5,24,18.2,33.9c8.6,9.7,19.2,17.3,31.5,22.5c12.2,5.2,25.6,7.9,39.7,7.9h151h63.7L94,480.8L13.8,349.3L2.4,330.4
			L2.4,330.4z"/>
	</g>
</g>
</svg>
