<?xml version="1.0" encoding="utf-8"?>
<!-- Generator: Adobe Illustrator 18.1.1, SVG Export Plug-In . SVG Version: 6.00 Build 0)  -->
<svg version="1.1" id="Layer_1" xmlns="http://www.w3.org/2000/svg" xmlns:xlink="http://www.w3.org/1999/xlink" x="0px" y="0px"
	 viewBox="8 115.1 628 562.9" enable-background="new 8 115.1 628 562.9" xml:space="preserve">
<g>
	<path fill="#FDE3B9" d="M199.7,381.2c116.6,0,181.7-96.5,190.7-148.2c6.5-37.3,15-86.6-29.5-117.9H192.5
		c-57,0-111.1,46.2-121,103.1l-28.3,163H199.7z"/>
	<path fill="#F9A824" d="M549.2,115.1h-81.4c16.1,45.3,7.9,92.9,3.5,117.9c-12.5,72.3-77.1,165.6-176.7,207.3L432,678h19.5
		c57,0,111.1-46.2,121-103.1l61.9-356.7C644.3,161.2,606.2,115.1,549.2,115.1z"/>
	<path fill="#FDE3B9" d="M205.6,461.4c-6.6,0.5-13.2,0.8-19.9,0.8H29.1L9.6,574.9C-0.3,631.8,37.8,678,94.8,678h236L205.6,461.4z"/>
</g>
</svg>
